Natural selection – Simulation-Based Population Genomics and Inference in R
…
Inspect the table of all individuals recorded in our tree sequence using the function ts_samples(), making sure we have all the individuals scheduled for tree-sequence recording. (Again, there’s no such a thing as too many sanity checks when doing research!)

Click to see the solution

ts_samples(ts)

# A tibble: 200 × 3
   name    time pop  
   <chr>  <dbl> <chr>
 1 EHG_1   6000 EHG  
 2 EHG_2   6000 EHG  
 3 EHG_3   6000 EHG  
 4 EHG_4   6000 EHG  
 5 EHG_5   6000 EHG  
 6 EHG_6   6000 EHG  
 7 EHG_7   6000 EHG  
 8 EHG_8   6000 EHG  
 9 EHG_9   6000 EHG  
10 EHG_10  6000 EHG  
# ℹ 190 more rows
…
The default output format of ts_tajima() is not super user-friendly. Process the result using a helper function process_tajima(tajima_wins) that I provided for you (perhaps save it as tajima_df), and visualize it using another of my helper functions plot_tajima(tajima_df).

Note: Making the process_tajima() and plot_tajima() function available in your R code is the purpose of the source(here::here("utils.R")) command at the beginning of your script for this exercise.

Click to see the solution

# The helper function `process_tajima()` reformats the results into a normal
# data frame, this time with a new column `window` which indicates the index
# of the window that each `D` value was computed in
tajima_df <- process_tajima(tajima_wins)
tajima_df

# A tibble: 396 × 3
   set         D window
   <chr>   <dbl>  <int>
 1 ANA    0.328       1
 2 ANA    0.123       2
 3 ANA    0.147       3
 4 ANA    0.0848      4
 5 ANA   -0.343       5
 6 ANA   -0.558       6
 7 ANA    0.0217      7
 8 ANA   -0.423       8
 9 ANA    0.380       9
10 ANA   -0.187      10
# ℹ 386 more rows
…
We can see that the slim() simulation generated a tree-sequence file (just like in previous exercises focused on msprime()) but it also created a new file – this was done by the SLiM customization snippet we provided to compile_model().

Part 5: Investigating allele frequency trajectories

Use another helper function read_trajectory(path) which I provided for this exercise to read the simulated frequency trajectories of the positively selected mutation in all of our populations into a variable traj_df. Then run a second helper function plot_trajectory(traj_df) to inspect the trajectories visually.

Recall that you used the function substitute_values() to parametrize your selection model so that the allele under selection occurs in Europeans 15 thousand years ago, and is programmed to be under very strong selection of \(s = 0.15\). Do the trajectories visualized by plot_trajectory() make sense given the demographic model of European prehistory plotted above?

Click to see the solution

traj_df <- read_trajectory(path)
traj_df

# A tibble: 1,604 × 4
    time pop      freq onset
   <dbl> <fct>   <dbl> <dbl>
 1 11990 EHG    0      12000
 2 11990 ANA    0      12000
 3 11990 EUR    0.0001 12000
 4 11990 YAM   NA      12000
 5 11960 EHG    0      12000
 6 11960 ANA    0      12000
 7 11960 EUR    0.0001 12000
 8 11960 YAM   NA      12000
 9 11930 EHG    0      12000
10 11930 ANA    0      12000
# ℹ 1,594 more rows
…
