Spatial PCA – Simulation-Based Population Genomics
…
ts_eigenstrat(ts, "files/popgen/spatial_pca2")

1035 multiallelic sites (0.410% out of 252524 total) detected and removed

EIGENSTRAT object
=================
components:
  ind file: files/popgen/spatial_pca2.ind
  snp file: files/popgen/spatial_pca2.snp
  geno file: files/popgen/spatial_pca2.geno

read_ind(eigenstrat("files/popgen/spatial_pca2"))

# A tibble: 455 × 3
   id    sex   label
   <chr> <chr> <chr>
 1 p1_1  U     p1_1 
 2 p1_2  U     p1_2 
 3 p1_3  U     p1_3 
 4 p1_4  U     p1_4 
 5 p1_5  U     p1_5 
 6 p1_6  U     p1_6 
 7 p1_7  U     p1_7 
 8 p1_8  U     p1_8 
 9 p1_9  U     p1_9 
10 p1_10 U     p1_10
# ℹ 445 more rows

ts_samples(ts)

# A tibble: 455 × 3
   name   time pop  
   <chr> <dbl> <chr>
 1 p1_1  10000 p1   
 2 p1_2  10000 p1   
 3 p1_3  10000 p1   
 4 p1_4  10000 p1   
 5 p1_5  10000 p1   
 6 p1_6  10000 p1   
 7 p1_7  10000 p1   
 8 p1_8  10000 p1   
 9 p1_9  10000 p1   
10 p1_10 10000 p1   
# ℹ 445 more rows
…
