Demographic models – Computational Population Genetics and Statistical Inference in R
…
The brilliance of the tree-sequence data structure rests on its elegant table-based implementation (much more information on that is here). slendr isn’t really designed to run very complex low-level manipulations of tree-sequence data (its strength lies in the convenient interface to population genetic statistical functions implemented by tskit), but it does contain a couple of functions which can be useful for inspecting the lower-level nature of a tree sequence. Let’s look at a couple of them now.

Use the ts_table function to inspect the low-level table-based representation of a tree sequence. For instance, you can get the table of nodes with ts_table(ts, "nodes"), edges with ts_table(ts, "edges"), and do the same thing for “individuals”, “mutations”, and “sites”. Does your tree sequence contain any mutations? If not, why, and how can we even do any population genetics with data without any mutations? As you’re doing this, take a look at at the following figure (this was made from a different tree sequence than you have, but that’s alright) to help you relate the information in the tables to a tree sequence which those tables (particularly tables of nodes and edges) implicitly encode.

This should convince you that the final product of a slendr simulation really is the same kind of tree-sequence object that you learned about in the introductory session earlier. You don’t have to study these tables in detail, this is just to remind you that they are always there.

NoteClick to see the solution

slendr provides a helper function which allows access to all the low-level components of every tree-sequence object:

ts_table(ts, "nodes")

# A tibble: 105,196 × 5
   node_id    ind_id pop_id  time time_tskit
     <int> <int[1d]>  <int> <dbl>      <dbl>
 1       0         0      0     0          0
 2       1         0      0     0          0
 3       2         1      0     0          0
 4       3         1      0     0          0
 5       4         2      0     0          0
 6       5         2      0     0          0
 7       6         3      0     0          0
 8       7         3      0     0          0
 9       8         4      0     0          0
10       9         4      0     0          0
# ℹ 105,186 more rows

ts_table(ts, "edges")

# A tibble: 135,202 × 5
      id child parent  left   right
   <dbl> <int>  <int> <dbl>   <dbl>
 1     0  1889  48000     0 1000000
 2     1  2166  48000     0 1000000
 3     2 15070  48001     0 1000000
 4     3 19125  48001     0 1000000
 5     4 14067  48002     0 1000000
 6     5 22603  48002     0 1000000
 7     6 15085  48003     0 1000000
 8     7 27582  48003     0 1000000
 9     8 20541  48004     0 1000000
10     9 36228  48004     0 1000000
# ℹ 135,192 more rows

ts_table(ts, "individuals")

# A tibble: 24,000 × 5
   ind_id  time    pop_id sampled   time_tskit
    <dbl> <dbl> <int[1d]> <lgl[1d]>  <dbl[1d]>
 1      0     0         0 TRUE               0
 2      1     0         0 TRUE               0
 3      2     0         0 TRUE               0
 4      3     0         0 TRUE               0
 5      4     0         0 TRUE               0
 6      5     0         0 TRUE               0
 7      6     0         0 TRUE               0
 8      7     0         0 TRUE               0
 9      8     0         0 TRUE               0
10      9     0         0 TRUE               0
# ℹ 23,990 more rows
…
ts_table(ts, "sites")

# A tibble: 0 × 2
# ℹ 2 variables: id <dbl>, position <dbl>

There are also two slendr-specific functions called ts_samples() (which retrieves the “symbolic names” and dates of all recorded individuals at the end of a simulation) and ts_nodes(). You can run them simply as ts_samples(ts) and ts_nodes(ts). How many individuals (samples) are in your tree sequence as you simulated it? How is the result of ts_nodes() different from ts_samples()?

NoteClick to see the solution

We can see that our tree sequence contains a massive number of individuals. Too many, in fact — we recorded every single individual alive at the end of our simulation, which is something we’re unlikely to be ever lucky enough to have, regardless of which species we study.

ts_samples(ts)

# A tibble: 24,000 × 3
   name      time pop  
   <chr>    <dbl> <chr>
 1 CHIMP_1      0 AFR  
 2 CHIMP_2      0 AFR  
 3 CHIMP_3      0 AFR  
 4 CHIMP_4      0 AFR  
 5 CHIMP_5      0 AFR  
 6 CHIMP_6      0 AFR  
 7 CHIMP_7      0 AFR  
 8 CHIMP_8      0 AFR  
 9 CHIMP_9      0 AFR  
10 CHIMP_10     0 AFR  
# ℹ 23,990 more rows
…
# Here we schedule one Chimpanzee sample, 5 African samples, and 10 European samples
present_samples <- schedule_sampling(model, times = 0, list(chimp, 1), list(afr, 5), list(eur, 10))

# We also schedule the recording of one European sample between 50kya and 2kya,
# every 2000 years
times <- seq(40000, 2000, by = -2000)
emh_samples <- schedule_sampling(model, times, list(eur, 1))

# Because those functions produce nothing but a data frame, we can bind
# individual sampling schedules together
schedule <- rbind(nea_samples, present_samples, emh_samples)
schedule

# A tibble: 25 × 8
    time pop       n name  y_orig x_orig y     x    
   <int> <chr> <int> <lgl> <lgl>  <lgl>  <lgl> <lgl>
 1 40000 NEA       1 NA    NA     NA     NA    NA   
 2 70000 NEA       1 NA    NA     NA     NA    NA   
 3     0 CHIMP     1 NA    NA     NA     NA    NA   
 4     0 AFR       5 NA    NA     NA     NA    NA   
 5     0 EUR      10 NA    NA     NA     NA    NA   
 6  2000 EUR       1 NA    NA     NA     NA    NA   
 7  4000 EUR       1 NA    NA     NA     NA    NA   
 8  6000 EUR       1 NA    NA     NA     NA    NA   
 9  8000 EUR       1 NA    NA     NA     NA    NA   
10 10000 EUR       1 NA    NA     NA     NA    NA   
# ℹ 15 more rows
…
Get the table of all recorded samples in the tree sequence;

ts_samples(ts)

# A tibble: 38 × 3
   name   time pop  
   <chr> <dbl> <chr>
 1 NEA_1 70000 NEA  
 2 EUR_1 40000 EUR  
 3 NEA_2 40000 NEA  
 4 EUR_2 38000 EUR  
 5 EUR_3 36000 EUR  
 6 EUR_4 34000 EUR  
 7 EUR_5 32000 EUR  
 8 EUR_6 30000 EUR  
 9 EUR_7 28000 EUR  
10 EUR_8 26000 EUR  
# ℹ 28 more rows
…
