Algorithmic thinking – Computational Population Genomics and Data Science in R
…
  df <- tibble(
    p_init = p_init,
    Ne = Ne,
    time = generations,
    frequency = trajectory
  )
  
  df
}

simulate_trajectory(p_init = 0.5, Ne = 1000, generations = 1000)

# A tibble: 1,000 × 4
   p_init    Ne  time frequency
    <dbl> <dbl> <dbl>     <dbl>
 1    0.5  1000  1000     0.5  
 2    0.5  1000  1000     0.484
 3    0.5  1000  1000     0.508
 4    0.5  1000  1000     0.526
 5    0.5  1000  1000     0.492
 6    0.5  1000  1000     0.483
 7    0.5  1000  1000     0.47 
 8    0.5  1000  1000     0.474
 9    0.5  1000  1000     0.472
10    0.5  1000  1000     0.479
# ℹ 990 more rows
…
