2 Computing statistics on tree sequences from slendr – Simulation-Based Population Genomics and Inference in R
…
 [1] "NEA_1"   "EUR_1"   "NEA_2"   "EUR_2"   "EUR_3"   "EUR_4"   "EUR_5"  
 [8] "EUR_6"   "EUR_7"   "EUR_8"   "EUR_9"   "EUR_10"  "EUR_11"  "EUR_12" 
[15] "EUR_13"  "EUR_14"  "EUR_15"  "EUR_16"  "EUR_17"  "EUR_18"  "EUR_19" 
[22] "EUR_20"  "AFR_1"   "AFR_2"   "AFR_3"   "AFR_4"   "AFR_5"   "CHIMP_1"
[29] "EUR_21"  "EUR_22"  "EUR_23"  "EUR_24"  "EUR_25"  "EUR_26"  "EUR_27" 
[36] "EUR_28"  "EUR_29"  "EUR_30" 

pi_df$diversity <- ts_diversity(ts, sample_sets = pi_df$name)$diversity
pi_df

# A tibble: 38 × 4
   name   time pop   diversity
   <chr> <dbl> <chr>     <dbl>
 1 NEA_1 70000 NEA   0.0000431
 2 EUR_1 40000 EUR   0.000516 
 3 NEA_2 40000 NEA   0.0000410
 4 EUR_2 38000 EUR   0.000520 
 5 EUR_3 36000 EUR   0.000539 
 6 EUR_4 34000 EUR   0.000534 
 7 EUR_5 32000 EUR   0.000533 
 8 EUR_6 30000 EUR   0.000553 
 9 EUR_7 28000 EUR   0.000499 
10 EUR_8 26000 EUR   0.000506 
# ℹ 28 more rows
…
2.4.4 Bonus 4: Trajectory of Neanderthal ancestry in Europe over time

There used to be a lot of controversy about the question of whether or not did Neanderthal ancestry proportion in Europeans decline or not over the past 40 thousand years (see figure 1 in this paper figure 2 in this paper).

Your simulated tree sequence contains a time-series of European individuals over time. Use the slendr function ts_f4ratio() to compute (and then plot) the proportion (commonly designated as alpha) of Neanderthal ancestry in Europe over time. Use \(f_4\)-ratio statistic of the following form:

ts_f4ratio(ts, X = <vector of ind. names>, A = "NEA_1", B = "NEA_2", C = "AFR_1", O = "CHIMP_1")

Click to see the solution

# Extract table with names and times of sampled Europeans (ancient and present day)
eur_inds <- ts_samples(ts) %>% filter(pop == "EUR")
eur_inds

# A tibble: 30 × 3
   name    time pop  
   <chr>  <dbl> <chr>
 1 EUR_1  40000 EUR  
 2 EUR_2  38000 EUR  
 3 EUR_3  36000 EUR  
 4 EUR_4  34000 EUR  
 5 EUR_5  32000 EUR  
 6 EUR_6  30000 EUR  
 7 EUR_7  28000 EUR  
 8 EUR_8  26000 EUR  
 9 EUR_9  24000 EUR  
10 EUR_10 22000 EUR  
# ℹ 20 more rows

# Compute f4-ration statistic (this will take ~30s) -- note that we can provide
# a vector of names for the X sample set to the `ts_f4ratio()` function
nea_ancestry <- ts_f4ratio(ts, X = eur_inds$name, A = "NEA_1", B = "NEA_2", C = "AFR_1", O = "CHIMP_1")

# Add the age of each sample to the table of proportions
nea_ancestry$time <- eur_inds$time
nea_ancestry

# A tibble: 30 × 7
   X      A     B     C     O        alpha  time
   <chr>  <chr> <chr> <chr> <chr>    <dbl> <dbl>
 1 EUR_1  NEA_1 NEA_2 AFR_1 CHIMP_1 0.0153 40000
 2 EUR_2  NEA_1 NEA_2 AFR_1 CHIMP_1 0.0170 38000
 3 EUR_3  NEA_1 NEA_2 AFR_1 CHIMP_1 0.0117 36000
 4 EUR_4  NEA_1 NEA_2 AFR_1 CHIMP_1 0.0201 34000
 5 EUR_5  NEA_1 NEA_2 AFR_1 CHIMP_1 0.0261 32000
 6 EUR_6  NEA_1 NEA_2 AFR_1 CHIMP_1 0.0132 30000
 7 EUR_7  NEA_1 NEA_2 AFR_1 CHIMP_1 0.0151 28000
 8 EUR_8  NEA_1 NEA_2 AFR_1 CHIMP_1 0.0243 26000
 9 EUR_9  NEA_1 NEA_2 AFR_1 CHIMP_1 0.0195 24000
10 EUR_10 NEA_1 NEA_2 AFR_1 CHIMP_1 0.0243 22000
# ℹ 20 more rows
…
