Simulations with slendr – Simulation-Based Population Genomics and Inference in R
…
The brilliance of the tree-sequence data structure rests on its elegant table-based implementation (much more information on that is here). slendr isn’t really designed to run very complex low-level manipulations of tree-sequence data (its strength lies in the convenient interface to popgen statistical functions implemented by tskit), but it does contain a couple of functions which can be useful for inspecting the lower-level nature of a tree sequence. Let’s look at a couple of them now.

Use the ts_table function to inspect the low-level table-based representation of a tree sequence. For instance, you can get the table of nodes with ts_table(ts, "nodes"), edges with ts_table(ts, "edges"), and do the same thing for “individuals”, “mutations”, and “sites”. Does your tree sequence contain any mutations? If not, why, and how can we even do any popgen with data without any mutations? As you’re doing this, take a look at at the following figure (this was made from a different tree sequence than you have, but that’s OK) to help you relate the information in the tables to a tree sequence which those tables (particularly tables of nodes and edges) implicitly encode.

This should convince you that the final product of a slendr simulation really is the same kind of tree-sequence object that you learned about in the previous activities today. You don’t have to study these tables in detail!

Click to see the solution

# slendr provides a helper function which allows access to all the low-level
# components of every tree-sequence object
ts_table(ts, "nodes")

# A tibble: 105,245 × 5
   node_id    ind_id pop_id  time time_tskit
     <int> <int[1d]>  <int> <dbl>      <dbl>
 1       0         0      0     0          0
 2       1         0      0     0          0
 3       2         1      0     0          0
 4       3         1      0     0          0
 5       4         2      0     0          0
 6       5         2      0     0          0
 7       6         3      0     0          0
 8       7         3      0     0          0
 9       8         4      0     0          0
10       9         4      0     0          0
# ℹ 105,235 more rows

ts_table(ts, "edges")

# A tibble: 135,698 × 5
      id child parent  left   right
   <dbl> <int>  <int> <dbl>   <dbl>
 1     0  6465  48000     0 1000000
 2     1  8962  48000     0 1000000
 3     2 40506  48001     0 1000000
 4     3 41949  48001     0 1000000
 5     4 17805  48002     0 1000000
 6     5 18225  48002     0 1000000
 7     6 10642  48003     0 1000000
 8     7 26605  48003     0 1000000
 9     8 30461  48004     0 1000000
10     9 39735  48004     0 1000000
# ℹ 135,688 more rows

ts_table(ts, "individuals")

# A tibble: 24,000 × 5
   ind_id  time    pop_id time_tskit sampled
    <dbl> <dbl> <int[1d]>  <dbl[1d]> <lgl>  
 1      0     0         0          0 TRUE   
 2      1     0         0          0 TRUE   
 3      2     0         0          0 TRUE   
 4      3     0         0          0 TRUE   
 5      4     0         0          0 TRUE   
 6      5     0         0          0 TRUE   
 7      6     0         0          0 TRUE   
 8      7     0         0          0 TRUE   
 9      8     0         0          0 TRUE   
10      9     0         0          0 TRUE   
# ℹ 23,990 more rows
…
There are also two slendr-specific functions called ts_samples() (which retrieves the “symbolic names” and dates of all recorded individuals at the end of a simulation) and ts_nodes(). You can run them simply as ts_samples(ts) and ts_nodes(ts). How many individuals (samples) are in your tree sequence as you simulated it? How is the result of ts_nodes() different from ts_samples()?

Click to see the solution

# slendr provides a convenient function `ts_samples()` which allows us to
# inspect the contents of a simulated tree sequence in a more human-readable,
# simplified way. We can see that our tree sequence contains a massive number
# of individuals. Too many, in fact -- we recorded every single individual alive
# at the end of our simulation, which is something we're unlikely to be ever lucky
# enough to have, regardless of which species we study.
ts_samples(ts)

# A tibble: 24,000 × 3
   name    time pop  
   <chr>  <dbl> <chr>
 1 AFR_1      0 AFR  
 2 AFR_2      0 AFR  
 3 AFR_3      0 AFR  
 4 AFR_4      0 AFR  
 5 AFR_5      0 AFR  
 6 AFR_6      0 AFR  
 7 AFR_7      0 AFR  
 8 AFR_8      0 AFR  
 9 AFR_9      0 AFR  
10 AFR_10     0 AFR  
# ℹ 23,990 more rows
…
# Here we schedule one Chimpanzee sample, 5 African samples, and 10 European samples
present_samples <- schedule_sampling(model, times = 0, list(chimp, 1), list(afr, 5), list(eur, 10))

# We also schedule the recording of one European sample between 50kya and 2kya,
# every 2000 years
times <- seq(40000, 2000, by = -2000)
emh_samples <- schedule_sampling(model, times, list(eur, 1))

# Because those functions produce nothing but a data frame, we can bind
# individual sampling schedules together
schedule <- rbind(nea_samples, present_samples, emh_samples)
schedule

# A tibble: 25 × 7
    time pop       n y_orig x_orig y     x    
   <int> <chr> <int> <lgl>  <lgl>  <lgl> <lgl>
 1 40000 NEA       1 NA     NA     NA    NA   
 2 70000 NEA       1 NA     NA     NA    NA   
 3     0 CHIMP     1 NA     NA     NA    NA   
 4     0 AFR       5 NA     NA     NA    NA   
 5     0 EUR      10 NA     NA     NA    NA   
 6  2000 EUR       1 NA     NA     NA    NA   
 7  4000 EUR       1 NA     NA     NA    NA   
 8  6000 EUR       1 NA     NA     NA    NA   
 9  8000 EUR       1 NA     NA     NA    NA   
10 10000 EUR       1 NA     NA     NA    NA   
# ℹ 15 more rows
…
# Get the table of all recorded samples in the tree sequence
ts_samples(ts)

# A tibble: 38 × 3
   name   time pop  
   <chr> <dbl> <chr>
 1 NEA_1 70000 NEA  
 2 EUR_1 40000 EUR  
 3 NEA_2 40000 NEA  
 4 EUR_2 38000 EUR  
 5 EUR_3 36000 EUR  
 6 EUR_4 34000 EUR  
 7 EUR_5 32000 EUR  
 8 EUR_6 30000 EUR  
 9 EUR_7 28000 EUR  
10 EUR_8 26000 EUR  
# ℹ 28 more rows
…
 [1] "NEA_1"   "EUR_1"   "NEA_2"   "EUR_2"   "EUR_3"   "EUR_4"   "EUR_5"  
 [8] "EUR_6"   "EUR_7"   "EUR_8"   "EUR_9"   "EUR_10"  "EUR_11"  "EUR_12" 
[15] "EUR_13"  "EUR_14"  "EUR_15"  "EUR_16"  "EUR_17"  "EUR_18"  "EUR_19" 
[22] "EUR_20"  "AFR_1"   "AFR_2"   "AFR_3"   "AFR_4"   "AFR_5"   "CHIMP_1"
[29] "EUR_21"  "EUR_22"  "EUR_23"  "EUR_24"  "EUR_25"  "EUR_26"  "EUR_27" 
[36] "EUR_28"  "EUR_29"  "EUR_30" 

pi_df$diversity <- ts_diversity(ts, sample_sets = pi_df$name)$diversity
pi_df

# A tibble: 38 × 4
   name   time pop   diversity
   <chr> <dbl> <chr>     <dbl>
 1 NEA_1 70000 NEA   0.0000431
 2 EUR_1 40000 EUR   0.000516 
 3 NEA_2 40000 NEA   0.0000410
 4 EUR_2 38000 EUR   0.000520 
 5 EUR_3 36000 EUR   0.000539 
 6 EUR_4 34000 EUR   0.000534 
 7 EUR_5 32000 EUR   0.000533 
 8 EUR_6 30000 EUR   0.000553 
 9 EUR_7 28000 EUR   0.000499 
10 EUR_8 26000 EUR   0.000506 
# ℹ 28 more rows
…
Bonus 4: Trajectory of Neanderthal ancestry in Europe over time

There used to be a lot of controversy about the question of whether or not did Neanderthal ancestry proportion in Europeans decline or not over the past 40 thousand years (see figure 1 in this paper figure 2 in this paper).

Your simulated tree sequence contains a time-series of European individuals over time. Use the slendr function ts_f4ratio() to compute (and then plot) the proportion (commonly designated as alpha) of Neanderthal ancestry in Europe over time. Use \(f_4\)-ratio statistic of the following form:

ts_f4ratio(ts, X = <vector of ind. names>, A = "NEA_1", B = "NEA_2", C = "AFR_1", O = "CHIMP_1")

Click to see the solution

# Extract table with names and times of sampled Europeans (ancient and present day)
eur_inds <- ts_samples(ts) %>% filter(pop == "EUR")
eur_inds

# A tibble: 30 × 3
   name    time pop  
   <chr>  <dbl> <chr>
 1 EUR_1  40000 EUR  
 2 EUR_2  38000 EUR  
 3 EUR_3  36000 EUR  
 4 EUR_4  34000 EUR  
 5 EUR_5  32000 EUR  
 6 EUR_6  30000 EUR  
 7 EUR_7  28000 EUR  
 8 EUR_8  26000 EUR  
 9 EUR_9  24000 EUR  
10 EUR_10 22000 EUR  
# ℹ 20 more rows

# Compute f4-ration statistic (this will take ~30s) -- note that we can provide
# a vector of names for the X sample set to the `ts_f4ratio()` function
nea_ancestry <- ts_f4ratio(ts, X = eur_inds$name, A = "NEA_1", B = "NEA_2", C = "AFR_1", O = "CHIMP_1")

# Add the age of each sample to the table of proportions
nea_ancestry$time <- eur_inds$time
nea_ancestry

# A tibble: 30 × 7
   X      A     B     C     O        alpha  time
   <chr>  <chr> <chr> <chr> <chr>    <dbl> <dbl>
 1 EUR_1  NEA_1 NEA_2 AFR_1 CHIMP_1 0.0153 40000
 2 EUR_2  NEA_1 NEA_2 AFR_1 CHIMP_1 0.0170 38000
 3 EUR_3  NEA_1 NEA_2 AFR_1 CHIMP_1 0.0117 36000
 4 EUR_4  NEA_1 NEA_2 AFR_1 CHIMP_1 0.0201 34000
 5 EUR_5  NEA_1 NEA_2 AFR_1 CHIMP_1 0.0261 32000
 6 EUR_6  NEA_1 NEA_2 AFR_1 CHIMP_1 0.0132 30000
 7 EUR_7  NEA_1 NEA_2 AFR_1 CHIMP_1 0.0151 28000
 8 EUR_8  NEA_1 NEA_2 AFR_1 CHIMP_1 0.0243 26000
 9 EUR_9  NEA_1 NEA_2 AFR_1 CHIMP_1 0.0195 24000
10 EUR_10 NEA_1 NEA_2 AFR_1 CHIMP_1 0.0243 22000
# ℹ 20 more rows
…
Inspect the table of all individuals recorded in our tree sequence using the function ts_samples(), making sure we have all the individuals scheduled for tree-sequence recording. (Again, there’s no such a thing as too many sanity checks when doing research!)

Click to see the solution

ts_samples(ts)

# A tibble: 200 × 3
   name    time pop  
   <chr>  <dbl> <chr>
 1 EHG_1   6000 EHG  
 2 EHG_2   6000 EHG  
 3 EHG_3   6000 EHG  
 4 EHG_4   6000 EHG  
 5 EHG_5   6000 EHG  
 6 EHG_6   6000 EHG  
 7 EHG_7   6000 EHG  
 8 EHG_8   6000 EHG  
 9 EHG_9   6000 EHG  
10 EHG_10  6000 EHG  
# ℹ 190 more rows
…
The default output format of ts_tajima() is not super user-friendly. Process the result using a helper function process_tajima(tajima_wins) that I provided for you (perhaps save it as tajima_df), and visualize it using another of my helper functions plot_tajima(tajima_df).

Note: Making the process_tajima() and plot_tajima() function available in your R code is the purpose of the source(here::here("utils.R")) command at the beginning of your script for this exercise.

Click to see the solution

# The helper function `process_tajima()` reformats the results into a normal
# data frame, this time with a new column `window` which indicates the index
# of the window that each `D` value was computed in
tajima_df <- process_tajima(tajima_wins)
tajima_df

# A tibble: 396 × 3
   set         D window
   <chr>   <dbl>  <int>
 1 ANA    0.330       1
 2 ANA    0.385       2
 3 ANA   -0.941       3
 4 ANA    0.255       4
 5 ANA    0.218       5
 6 ANA   -0.625       6
 7 ANA    0.154       7
 8 ANA   -0.214       8
 9 ANA    0.686       9
10 ANA   -0.0944     10
# ℹ 386 more rows
…
We can see that the slim() simulation generated a tree-sequence file (just like in previous exercises focused on msprime()) but it also created a new file – this was done by the SLiM customization snippet we provided to compile_model().

Part 5: Investigating allele frequency trajectories

Use another helper function read_trajectory(path) which I provided for this exercise to read the simulated frequency trajectories of the positively selected mutation in all of our populations into a variable traj_df. Then run a second helper function plot_trajectory(traj_df) to inspect the trajectories visually.

Recall that you used the function substitute_values() to parametrize your selection model so that the allele under selection occurs in Europeans 15 thousand years ago, and is programmed to be under very strong selection of \(s = 0.15\). Do the trajectories visualized by plot_trajectory() make sense given the demographic model of European prehistory plotted above?

Click to see the solution

traj_df <- read_trajectory(path)
traj_df

# A tibble: 1,604 × 4
    time pop      freq onset
   <dbl> <fct>   <dbl> <dbl>
 1 11990 EHG    0      12000
 2 11990 ANA    0      12000
 3 11990 EUR    0.0001 12000
 4 11990 YAM   NA      12000
 5 11960 EHG    0      12000
 6 11960 ANA    0      12000
 7 11960 EUR    0.0001 12000
 8 11960 YAM   NA      12000
 9 11930 EHG    0      12000
10 11930 ANA    0      12000
# ℹ 1,594 more rows
…
ts_eigenstrat(ts, "data/spatial_pca2")

1020 multiallelic sites (0.404% out of 252489 total) detected and removed

EIGENSTRAT object
=================
components:
  ind file: data/spatial_pca2.ind
  snp file: data/spatial_pca2.snp
  geno file: data/spatial_pca2.geno

read_ind(eigenstrat("data/spatial_pca2"))

# A tibble: 455 × 3
   id    sex   label
   <chr> <chr> <chr>
 1 p1_1  U     p1_1 
 2 p1_2  U     p1_2 
 3 p1_3  U     p1_3 
 4 p1_4  U     p1_4 
 5 p1_5  U     p1_5 
 6 p1_6  U     p1_6 
 7 p1_7  U     p1_7 
 8 p1_8  U     p1_8 
 9 p1_9  U     p1_9 
10 p1_10 U     p1_10
# ℹ 445 more rows

ts_samples(ts)

# A tibble: 455 × 3
   name   time pop  
   <chr> <dbl> <chr>
 1 p1_1  10000 p1   
 2 p1_2  10000 p1   
 3 p1_3  10000 p1   
 4 p1_4  10000 p1   
 5 p1_5  10000 p1   
 6 p1_6  10000 p1   
 7 p1_7  10000 p1   
 8 p1_8  10000 p1   
 9 p1_9  10000 p1   
10 p1_10 10000 p1   
# ℹ 445 more rows
…
library(dplyr)
library(ggplot2)

tracts <- ts_tracts(ts, census = 800)

PopAncestry summary
Number of ancestral populations:    3
Number of sample chromosomes:       1540
Number of ancestors:            55565
Total length of genomes:        154000000000.000000
Ancestral coverage:             84000000000.000000

tracts

# A tibble: 51,105 × 10
# Groups:   name [400]
   name     haplotype  time pop   source_pop    left  right length source_pop_id
   <chr>        <int> <dbl> <chr> <fct>        <dbl>  <dbl>  <dbl>         <dbl>
 1 popY_351         1   700 popY  popX        0      2.15e6 2.15e6             1
 2 popY_351         1   700 popY  popX        1.55e7 1.69e7 1.44e6             1
 3 popY_351         1   700 popY  popX        1.85e7 1.96e7 1.09e6             1
 4 popY_351         1   700 popY  popX        2.12e7 2.26e7 1.36e6             1
 5 popY_351         1   700 popY  popX        3.95e7 4.07e7 1.24e6             1
 6 popY_351         1   700 popY  popX        4.24e7 4.28e7 3.76e5             1
 7 popY_351         1   700 popY  popX        4.41e7 4.75e7 3.38e6             1
 8 popY_351         1   700 popY  popX        5.89e7 5.94e7 5.47e5             1
 9 popY_351         1   700 popY  popX        5.97e7 6.04e7 7.07e5             1
10 popY_351         1   700 popY  popX        6.46e7 6.51e7 4.84e5             1
# ℹ 51,095 more rows
# ℹ 1 more variable: node_id <dbl>
…
