Plotting tidy spatial data – Computational Population Genomics and Data Science in R
…
sf_ibd <- relocate(sf_ibd, sample1, sample2, total_ibd, link, time_bin1, time_bin2, country1, country2)

Now we have a tidy spatially-aware data frame of all IBD aggregate links saved in a variable sf_ibd. When you type it out into your R console, you can see a new geometry data type LINESTRING, which represents connections between points on a map. In this case, they represent IBD “links” connecting two individuals across space and time.

sf_ibd

Simple feature collection with 1284 features and 8 fields
Geometry type: LINESTRING
Dimension:     XY
Bounding box:  xmin: -170.1 ymin: -55.01 xmax: 151 ymax: 70.72
Geodetic CRS:  WGS 84
# A tibble: 1,284 × 9
   sample1 sample2   total_ibd                          link time_bin1 time_bin2
   <chr>   <chr>         <dbl>              <LINESTRING [°]> <fct>     <fct>    
 1 0LS10   NEO224         10.9   (26.55 59.5, 13.573 58.166) (2000,30… (3000,40…
 2 12881A  VK538          15.0     (0.18 52.08, 15.26 41.34) (1000,20… (0,1000] 
 3 12881A  VK553          11.0     (0.18 52.08, 22.25 58.17) (1000,20… (1000,20…
 4 15569A  R1221          22.1      (0.07 52.26, 12.47 41.9) (1000,20… (0,1000] 
 5 15569A  VK384          18.0      (0.07 52.26, 10.2 55.95) (1000,20… (1000,20…
 6 15570A  VK289          10.2      (0.07 52.26, 10.69 54.8) (1000,20… (0,1000] 
 7 19651   Kennewick      19.6 (-121.77 51.3, -119.14 46.21) (7000,80… (8000,90…
 8 84001   VK529          10.0    (17.72 59.62, 14.79 67.64) (0,1000]  (1000,20…
 9 84005   VK14           10.9        (17.72 59.62, 32.3 60) (0,1000]  (0,1000] 
10 84005   VK17           19.4        (17.72 59.62, 32.3 60) (0,1000]  (0,1000] 
# ℹ 1,274 more rows
# ℹ 3 more variables: country1 <chr>, country2 <chr>, n_ibd <dbl>
…
