Basics of data science – Computational Population Genomics and Data Science in R
…
max(df$coverage, na.rm = TRUE)

[1] 58.8661

Exercise 2: Selecting columns

Often times we end up in a situation in which we don’t want to have a large data frame with a huge number of columns. Not as much for the reasons of the data taking up too much memory, but for convenience. You can see that our df metadata table has 24 columns, which don’t fit on the screen if we just print it out (note the “13 more variables” in the output):

df

# A tibble: 4,072 × 24
   sampleId popId site  country region     continent groupLabel groupAge flag 
   <chr>    <chr> <chr> <chr>   <chr>      <chr>     <chr>      <chr>    <chr>
 1 NA18486  YRI   <NA>  Nigeria WestAfrica Africa    YRI        Modern   0    
 2 NA18488  YRI   <NA>  Nigeria WestAfrica Africa    YRI        Modern   0    
 3 NA18489  YRI   <NA>  Nigeria WestAfrica Africa    YRI        Modern   0    
 4 NA18498  YRI   <NA>  Nigeria WestAfrica Africa    YRI        Modern   0    
 5 NA18499  YRI   <NA>  Nigeria WestAfrica Africa    YRI        Modern   0    
 6 NA18501  YRI   <NA>  Nigeria WestAfrica Africa    YRI        Modern   0    
 7 NA18502  YRI   <NA>  Nigeria WestAfrica Africa    YRI        Modern   0    
 8 NA18504  YRI   <NA>  Nigeria WestAfrica Africa    YRI        Modern   0    
 9 NA18505  YRI   <NA>  Nigeria WestAfrica Africa    YRI        Modern   0    
10 NA18507  YRI   <NA>  Nigeria WestAfrica Africa    YRI        Modern   0    
# ℹ 4,062 more rows
# ℹ 15 more variables: latitude <dbl>, longitude <dbl>, dataSource <chr>,
#   age14C <dbl>, ageHigh <dbl>, ageLow <dbl>, ageAverage <dbl>,
#   datingSource <chr>, coverage <dbl>, sex <chr>, hgMT <chr>, gpAvg <dbl>,
#   ageRaw <chr>, hgYMajor <chr>, hgYMinor <chr>

We can select which columns to select with the function select(). It has the following general format:

select(<data frame>, <column 1>, <column 2>, ...)

As a reminder, this is how we would select columns using a normal base R subsetting/indexing operation:

df[, c("sampleId", "region", "coverage", "ageAverage")]

# A tibble: 4,072 × 4
   sampleId region     coverage ageAverage
   <chr>    <chr>         <dbl>      <dbl>
 1 NA18486  WestAfrica       NA         NA
 2 NA18488  WestAfrica       NA         NA
 3 NA18489  WestAfrica       NA         NA
 4 NA18498  WestAfrica       NA         NA
 5 NA18499  WestAfrica       NA         NA
 6 NA18501  WestAfrica       NA         NA
 7 NA18502  WestAfrica       NA         NA
 8 NA18504  WestAfrica       NA         NA
 9 NA18505  WestAfrica       NA         NA
10 NA18507  WestAfrica       NA         NA
# ℹ 4,062 more rows

This is the tidyverse approach using select():

select(df, sampleId, region, coverage, ageAverage)

# A tibble: 4,072 × 4
   sampleId region     coverage ageAverage
   <chr>    <chr>         <dbl>      <dbl>
 1 NA18486  WestAfrica       NA         NA
 2 NA18488  WestAfrica       NA         NA
 3 NA18489  WestAfrica       NA         NA
 4 NA18498  WestAfrica       NA         NA
 5 NA18499  WestAfrica       NA         NA
 6 NA18501  WestAfrica       NA         NA
 7 NA18502  WestAfrica       NA         NA
 8 NA18504  WestAfrica       NA         NA
 9 NA18505  WestAfrica       NA         NA
10 NA18507  WestAfrica       NA         NA
# ℹ 4,062 more rows
…
Data frame df_ages which contains all variables related to sample ages

Data frame df_geo which contains all variables related to geography

Additionally, the first column of these data frames should always be sampleId.

Check visually (or using the ncol() functions) that you indeed have a smaller number of columns in your new data frames.

Click to see the solution

df_ages <- select(df, sampleId, groupAge, age14C, ageHigh, ageLow, ageAverage, ageRaw)
df_ages

# A tibble: 4,072 × 7
   sampleId groupAge age14C ageHigh ageLow ageAverage ageRaw
   <chr>    <chr>     <dbl>   <dbl>  <dbl>      <dbl> <chr> 
 1 NA18486  Modern       NA      NA     NA         NA <NA>  
 2 NA18488  Modern       NA      NA     NA         NA <NA>  
 3 NA18489  Modern       NA      NA     NA         NA <NA>  
 4 NA18498  Modern       NA      NA     NA         NA <NA>  
 5 NA18499  Modern       NA      NA     NA         NA <NA>  
 6 NA18501  Modern       NA      NA     NA         NA <NA>  
 7 NA18502  Modern       NA      NA     NA         NA <NA>  
 8 NA18504  Modern       NA      NA     NA         NA <NA>  
 9 NA18505  Modern       NA      NA     NA         NA <NA>  
10 NA18507  Modern       NA      NA     NA         NA <NA>  
# ℹ 4,062 more rows

df_geo <- select(df, site, country, region, latitude, longitude)
df_geo

# A tibble: 4,072 × 5
   site  country region     latitude longitude
   <chr> <chr>   <chr>         <dbl>     <dbl>
 1 <NA>  Nigeria WestAfrica       NA        NA
 2 <NA>  Nigeria WestAfrica       NA        NA
 3 <NA>  Nigeria WestAfrica       NA        NA
 4 <NA>  Nigeria WestAfrica       NA        NA
 5 <NA>  Nigeria WestAfrica       NA        NA
 6 <NA>  Nigeria WestAfrica       NA        NA
 7 <NA>  Nigeria WestAfrica       NA        NA
 8 <NA>  Nigeria WestAfrica       NA        NA
 9 <NA>  Nigeria WestAfrica       NA        NA
10 <NA>  Nigeria WestAfrica       NA        NA
# ℹ 4,062 more rows
…
Note: The same “range syntax” of using : and and listing columns with c() applies also to selecting which columns to choose, not just for dropping them.

Use the : range in select() to drop every column after country (i.e., all the way to the last column in your table).

Click to see the solution

df %>% select(-(region:hgYMinor))

# A tibble: 4,072 × 4
   sampleId popId site  country
   <chr>    <chr> <chr> <chr>  
 1 NA18486  YRI   <NA>  Nigeria
 2 NA18488  YRI   <NA>  Nigeria
 3 NA18489  YRI   <NA>  Nigeria
 4 NA18498  YRI   <NA>  Nigeria
 5 NA18499  YRI   <NA>  Nigeria
 6 NA18501  YRI   <NA>  Nigeria
 7 NA18502  YRI   <NA>  Nigeria
 8 NA18504  YRI   <NA>  Nigeria
 9 NA18505  YRI   <NA>  Nigeria
10 NA18507  YRI   <NA>  Nigeria
# ℹ 4,062 more rows

I was personally a bit surprised that this also works without the parentheses. R is smart!

df %>% select(-region:-hgYMinor)

# A tibble: 4,072 × 4
   sampleId popId site  country
   <chr>    <chr> <chr> <chr>  
 1 NA18486  YRI   <NA>  Nigeria
 2 NA18488  YRI   <NA>  Nigeria
 3 NA18489  YRI   <NA>  Nigeria
 4 NA18498  YRI   <NA>  Nigeria
 5 NA18499  YRI   <NA>  Nigeria
 6 NA18501  YRI   <NA>  Nigeria
 7 NA18502  YRI   <NA>  Nigeria
 8 NA18504  YRI   <NA>  Nigeria
 9 NA18505  YRI   <NA>  Nigeria
10 NA18507  YRI   <NA>  Nigeria
# ℹ 4,062 more rows
…
First select() the columns sampleId, popId, country, continent, groupAge, ageAverage, and coverage.

Then use the rename() function to give them a shorter name: sampleId -> sample, popId -> population, groupAge -> set, ageAverage -> age. Leave the country and coverage columns as they are.**

Click to see the solution

df_subset <-
  df %>%
  select(sampleId, popId, country, continent, groupAge, ageAverage, coverage) %>%
  rename(sample = sampleId, population = popId, set = groupAge, age = ageAverage)

df_subset

# A tibble: 4,072 × 7
   sample  population country continent set      age coverage
   <chr>   <chr>      <chr>   <chr>     <chr>  <dbl>    <dbl>
 1 NA18486 YRI        Nigeria Africa    Modern    NA       NA
 2 NA18488 YRI        Nigeria Africa    Modern    NA       NA
 3 NA18489 YRI        Nigeria Africa    Modern    NA       NA
 4 NA18498 YRI        Nigeria Africa    Modern    NA       NA
 5 NA18499 YRI        Nigeria Africa    Modern    NA       NA
 6 NA18501 YRI        Nigeria Africa    Modern    NA       NA
 7 NA18502 YRI        Nigeria Africa    Modern    NA       NA
 8 NA18504 YRI        Nigeria Africa    Modern    NA       NA
 9 NA18505 YRI        Nigeria Africa    Modern    NA       NA
10 NA18507 YRI        Nigeria Africa    Modern    NA       NA
# ℹ 4,062 more rows
…
A shortcut which can be quite useful sometimes is that select() also accepts the new_name = old_name syntax of the rename() function, which allows you to both select columns (and rename some of them) all at once. Create the df_subset data frame again, but this time using just select().

Click to see the solution

df_subset <- df %>%
  select(sample = sampleId, population = popId,
         country,
         continent,
         set = groupAge, age = ageAverage,
         coverage)

df_subset

# A tibble: 4,072 × 7
   sample  population country continent set      age coverage
   <chr>   <chr>      <chr>   <chr>     <chr>  <dbl>    <dbl>
 1 NA18486 YRI        Nigeria Africa    Modern    NA       NA
 2 NA18488 YRI        Nigeria Africa    Modern    NA       NA
 3 NA18489 YRI        Nigeria Africa    Modern    NA       NA
 4 NA18498 YRI        Nigeria Africa    Modern    NA       NA
 5 NA18499 YRI        Nigeria Africa    Modern    NA       NA
 6 NA18501 YRI        Nigeria Africa    Modern    NA       NA
 7 NA18502 YRI        Nigeria Africa    Modern    NA       NA
 8 NA18504 YRI        Nigeria Africa    Modern    NA       NA
 9 NA18505 YRI        Nigeria Africa    Modern    NA       NA
10 NA18507 YRI        Nigeria Africa    Modern    NA       NA
# ℹ 4,062 more rows
…
When you need to sort the rows of a data frame based on a value of one or multiple columns, you can use the function arrange(). Again, in the spirit of the consistency across the tidyverse ecosystem, it follows exactly the same format of first giving the function a data frame to operate on, followed by a list of columns to sort by.

arrange(<data frame>, <column 1>, <column 2>, ...)

Note: When you want to reverse the order of the sort, you can surround the column name in a helper function desc() (standing for “descending”).

arrange(<data frame>, desc(<column 1>), desc(<column 2>), ...)

Who is the oldest individual in your data who is not an archaic individual? (Remember that you can filter() out rows corresponding to archaic individuals with the condition set != "Ancient" and then pipe the result into arrange() for sorting based on the renamed column age).

Click to see the solution

df %>% filter(set != "Archaic") %>% arrange(desc(age))

# A tibble: 4,069 × 24
   sample   population country continent set        age coverage site     region
   <chr>    <chr>      <chr>   <chr>     <chr>    <dbl>    <dbl> <chr>    <chr> 
 1 UstIshim UstIshim   Russia  Asia      Ancient 45020    35.2   Ust'-Is… North…
 2 Kostenki Kostenki   Russia  Europe    Ancient 37470     2.53  Kostenki Centr…
 3 SII      SII        Russia  Europe    Ancient 34234     4.25  Sunghir  Centr…
 4 SIII     SIII       Russia  Europe    Ancient 34092.   11.2   Sunghir  Centr…
 5 SIV      SIV        Russia  Europe    Ancient 33992     4.04  Sunghir  Centr…
 6 SI       SI         Russia  Europe    Ancient 32822.    1.16  Sunghir  Centr…
 7 Yana     Yana       Russia  Asia      Ancient 31950    26.5   Yana RHS North…
 8 Yana2    Yana2      Russia  Asia      Ancient 31950     6.81  Yana RHS North…
 9 NEO283   NEO283     Georgia Asia      Ancient 25635     0.786 Kotias … Weste…
10 MA1      MA1        Russia  Asia      Ancient 24305     1.09  Mal'ta   North…
# ℹ 4,059 more rows
# ℹ 15 more variables: groupLabel <chr>, flag <chr>, latitude <dbl>,
#   longitude <dbl>, dataSource <chr>, age14C <dbl>, ageHigh <dbl>,
#   ageLow <dbl>, datingSource <chr>, sex <chr>, hgMT <chr>, gpAvg <dbl>,
#   ageRaw <chr>, hgYMajor <chr>, hgYMinor <chr>

Similarly, who is the youngest ancient individual in your data in terms of its dating?

Click to see the solution

df %>% filter(set == "Ancient") %>% arrange(age)

# A tibble: 1,664 × 24
   sample  population country   continent set       age coverage site     region
   <chr>   <chr>      <chr>     <chr>     <chr>   <dbl>    <dbl> <chr>    <chr> 
 1 Andaman Andaman    India     Asia      Ancient   90    16.6   Great A… South…
 2 890     890        Argentina America   Ancient  100     0.508 Beagle … South…
 3 894     894        Argentina America   Ancient  100     0.983 Beagle … South…
 4 895     895        Argentina America   Ancient  100     1.32  Beagle … South…
 5 MA577   MA577      Argentina America   Ancient  100     1.82  Tierra … South…
 6 Nr74    Nr74       Chile     America   Ancient  100     0.438 Strait … South…
 7 AM71    AM71       Chile     America   Ancient  100     0.103 Strait … South…
 8 523a_C  523a_C     USA       America   Ancient  125     0.956 Palm Si… North…
 9 Vt719   Vt719      Vietnam   Asia      Ancient  154.    0.257 Northea… South…
10 KOV-A-2 KOV-A-2    Iceland   Europe    Ancient  236     0.685 Kopavog… North…
# ℹ 1,654 more rows
# ℹ 15 more variables: groupLabel <chr>, flag <chr>, latitude <dbl>,
#   longitude <dbl>, dataSource <chr>, age14C <dbl>, ageHigh <dbl>,
#   ageLow <dbl>, datingSource <chr>, sex <chr>, hgMT <chr>, gpAvg <dbl>,
#   ageRaw <chr>, hgYMajor <chr>, hgYMinor <chr>

Does the same approach work for sorting text? What do you get when you try sorting based on the country column?

Click to see the solution

Yes, this gives us standard alphabetical sort!

df %>% arrange(country)

# A tibble: 4,072 × 24
   sample    population country   continent set       age coverage site   region
   <chr>     <chr>      <chr>     <chr>     <chr>   <dbl>    <dbl> <chr>  <chr> 
 1 Aconcagua Aconcagua  Argentina America   Ancient  500    2.67   Cerro… South…
 2 890       890        Argentina America   Ancient  100    0.508  Beagl… South…
 3 894       894        Argentina America   Ancient  100    0.983  Beagl… South…
 4 895       895        Argentina America   Ancient  100    1.32   Beagl… South…
 5 MA577     MA577      Argentina America   Ancient  100    1.82   Tierr… South…
 6 NEO110    NEO110     Armenia   Asia      Ancient 7594    0.0605 Aknas… Weste…
 7 RISE423   RISE423    Armenia   Asia      Ancient 3256.   0.366  Nerqu… Weste…
 8 DA31      DA31       Armenia   Asia      Ancient 3314.   0.345  Lchas… Weste…
 9 DA35      DA35       Armenia   Asia      Ancient 3314.   1.62   Lchas… Weste…
10 RISE407   RISE407    Armenia   Asia      Ancient 2955    0.187  Norab… Weste…
# ℹ 4,062 more rows
# ℹ 15 more variables: groupLabel <chr>, flag <chr>, latitude <dbl>,
#   longitude <dbl>, dataSource <chr>, age14C <dbl>, ageHigh <dbl>,
#   ageLow <dbl>, datingSource <chr>, sex <chr>, hgMT <chr>, gpAvg <dbl>,
#   ageRaw <chr>, hgYMajor <chr>, hgYMinor <chr>

What do you get when you try sorting based on country and then coverage? What happens when you sort based on coverage and then country? Why is there a difference?

Click to see the solution

df %>% arrange(country, coverage)

# A tibble: 4,072 × 24
   sample    population country   continent set       age coverage site   region
   <chr>     <chr>      <chr>     <chr>     <chr>   <dbl>    <dbl> <chr>  <chr> 
 1 890       890        Argentina America   Ancient  100    0.508  Beagl… South…
 2 894       894        Argentina America   Ancient  100    0.983  Beagl… South…
 3 895       895        Argentina America   Ancient  100    1.32   Beagl… South…
 4 MA577     MA577      Argentina America   Ancient  100    1.82   Tierr… South…
 5 Aconcagua Aconcagua  Argentina America   Ancient  500    2.67   Cerro… South…
 6 NEO110    NEO110     Armenia   Asia      Ancient 7594    0.0605 Aknas… Weste…
 7 RISE407   RISE407    Armenia   Asia      Ancient 2955    0.187  Norab… Weste…
 8 DA31      DA31       Armenia   Asia      Ancient 3314.   0.345  Lchas… Weste…
 9 RISE423   RISE423    Armenia   Asia      Ancient 3256.   0.366  Nerqu… Weste…
10 RISE397   RISE397    Armenia   Asia      Ancient 2902.   0.392  Kapan  Weste…
# ℹ 4,062 more rows
# ℹ 15 more variables: groupLabel <chr>, flag <chr>, latitude <dbl>,
#   longitude <dbl>, dataSource <chr>, age14C <dbl>, ageHigh <dbl>,
#   ageLow <dbl>, datingSource <chr>, sex <chr>, hgMT <chr>, gpAvg <dbl>,
#   ageRaw <chr>, hgYMajor <chr>, hgYMinor <chr>

df %>% arrange(coverage, country)

# A tibble: 4,072 × 24
   sample population country continent set       age coverage site        region
   <chr>  <chr>      <chr>   <chr>     <chr>   <dbl>    <dbl> <chr>       <chr> 
 1 NEO496 NEO496     Ukraine Europe    Ancient 10655   0.0124 Vasilevka-I Centr…
 2 NEO7   NEO7       Denmark Europe    Ancient  5240   0.0127 Sigersdal … North…
 3 NEO13  NEO13      Denmark Europe    Ancient  9511   0.0134 Hedegaard … North…
 4 NEO580 NEO580     Denmark Europe    Ancient  4612   0.0134 Klokkehøj   North…
 5 NEO1   NEO1       Denmark Europe    Ancient  6594   0.0150 Holmegård-… North…
 6 NEO916 NEO916     Russia  Asia      Ancient  5727   0.0175 Vengerovo-2 North…
 7 NEO41  NEO41      Denmark Europe    Ancient  5531   0.0195 Rude        North…
 8 NEO915 NEO915     Russia  Asia      Ancient  5727   0.0202 Vengerovo-2 North…
 9 NEO566 NEO566     Denmark Europe    Ancient  5135   0.0206 Døjringe    North…
10 NEO961 NEO961     Denmark Europe    Ancient  5149   0.0229 Avlebjerg … North…
# ℹ 4,062 more rows
# ℹ 15 more variables: groupLabel <chr>, flag <chr>, latitude <dbl>,
#   longitude <dbl>, dataSource <chr>, age14C <dbl>, ageHigh <dbl>,
#   ageLow <dbl>, datingSource <chr>, sex <chr>, hgMT <chr>, gpAvg <dbl>,
#   ageRaw <chr>, hgYMajor <chr>, hgYMinor <chr>
…
Always remember to check assumptions in your data, even the ones you consider trivial. Functions such as table() and unique() are extremely useful for this.

Let’s practice if_else() a bit more. First, use filter() to look at the values of the age column for present-day individuals in the 1000 Genomes Project data (dataSource == "1000g"). What ages do you see?

Click to see the solution

The individuals have NA age. This could be annoying if we ever want to plot some population genetic statistics as functions of age:

df %>% filter(dataSource == "1000g")

# A tibble: 2,405 × 24
   sample  population country continent   age coverage site  region   groupLabel
   <chr>   <chr>      <chr>   <chr>     <dbl>    <dbl> <chr> <chr>    <chr>     
 1 NA18486 YRI        Nigeria Africa       NA       NA <NA>  WestAfr… YRI       
 2 NA18488 YRI        Nigeria Africa       NA       NA <NA>  WestAfr… YRI       
 3 NA18489 YRI        Nigeria Africa       NA       NA <NA>  WestAfr… YRI       
 4 NA18498 YRI        Nigeria Africa       NA       NA <NA>  WestAfr… YRI       
 5 NA18499 YRI        Nigeria Africa       NA       NA <NA>  WestAfr… YRI       
 6 NA18501 YRI        Nigeria Africa       NA       NA <NA>  WestAfr… YRI       
 7 NA18502 YRI        Nigeria Africa       NA       NA <NA>  WestAfr… YRI       
 8 NA18504 YRI        Nigeria Africa       NA       NA <NA>  WestAfr… YRI       
 9 NA18505 YRI        Nigeria Africa       NA       NA <NA>  WestAfr… YRI       
10 NA18507 YRI        Nigeria Africa       NA       NA <NA>  WestAfr… YRI       
# ℹ 2,395 more rows
# ℹ 15 more variables: flag <chr>, latitude <dbl>, longitude <dbl>,
#   dataSource <chr>, age14C <dbl>, ageHigh <dbl>, ageLow <dbl>,
#   datingSource <chr>, sex <chr>, hgMT <chr>, gpAvg <dbl>, ageRaw <chr>,
#   hgYMajor <chr>, hgYMinor <chr>, sex_desc <chr>
…
