Advanced data science – Simulation-Based Population Genomics
…
      1 
2291452 

Exercise 2: IBD processing

Add a new column using the mutate() function called length, which contains the length of each IBD segment in centimorgans (end - start). Save the result to a new variable ibd.

Click to see the solution

ibd <- ibd_all %>% mutate(length = end - start)

ibd

# A tibble: 2,291,452 × 6
   sample1   sample2 chrom start   end length
   <chr>     <chr>   <dbl> <dbl> <dbl>  <dbl>
 1 Gjerrild5 kzb005      1  2.23  4.73   2.51
 2 Gjerrild5 HG01438     1  2.23  4.73   2.51
 3 Gjerrild5 NA19649     1  2.23  4.73   2.51
 4 DA248     DA341       1  2.23  4.73   2.51
 5 DA249     DA340       1  2.23  4.73   2.51
 6 DA249     DA341       1  2.23  4.73   2.51
 7 DA335     NEO230      1  2.23  4.73   2.51
 8 DA336     DA338       1  2.23  4.73   2.51
 9 DA336     DA343       1  2.23  4.73   2.51
10 DA336     RISE662     1  2.23  4.73   2.51
# ℹ 2,291,442 more rows

Note that you don’t always use a tidyverse approach. Sometimes doing a simple thing using a simple method is just… simpler:

# we first make a copy of the original data
ibd <- ibd_all
# and then add the new column
ibd$length <- ibd_all$end - ibd_all$start

ibd

# A tibble: 2,291,452 × 6
   sample1   sample2 chrom start   end length
   <chr>     <chr>   <dbl> <dbl> <dbl>  <dbl>
 1 Gjerrild5 kzb005      1  2.23  4.73   2.51
 2 Gjerrild5 HG01438     1  2.23  4.73   2.51
 3 Gjerrild5 NA19649     1  2.23  4.73   2.51
 4 DA248     DA341       1  2.23  4.73   2.51
 5 DA249     DA340       1  2.23  4.73   2.51
 6 DA249     DA341       1  2.23  4.73   2.51
 7 DA335     NEO230      1  2.23  4.73   2.51
 8 DA336     DA338       1  2.23  4.73   2.51
 9 DA336     DA343       1  2.23  4.73   2.51
10 DA336     RISE662     1  2.23  4.73   2.51
# ℹ 2,291,442 more rows

We have processed our IBD table a bit, so let’s proceed with the metadata. There’s much more information than we need for now, so let’s make the data a bit smaller and easier to look at at a glance.

select() a subset of the metadata with the following columns and store it in the same variable metadata: sampleId, country, ageAverage. Then rename() sampleId to sample, popId to pop, and ageAverage to age just to save ourselves some typing.

Click to see the solution

metadata <- select(metadata_all, sample = sampleId, country, age = ageAverage)
metadata

# A tibble: 4,171 × 3
   sample  country   age
   <chr>   <chr>   <dbl>
 1 NA18486 Nigeria    NA
 2 NA18488 Nigeria    NA
 3 NA18489 Nigeria    NA
 4 NA18498 Nigeria    NA
 5 NA18499 Nigeria    NA
 6 NA18501 Nigeria    NA
 7 NA18502 Nigeria    NA
 8 NA18504 Nigeria    NA
 9 NA18505 Nigeria    NA
10 NA18507 Nigeria    NA
# ℹ 4,161 more rows
…
v1 <- c("Denmark", "Czech Republic", "Estonia")
v2 <- c("Finland", "Italy", "Estonia")

paste(v1, v2, sep = ":")

[1] "Denmark:Finland"      "Czech Republic:Italy" "Estonia:Estonia"     

Use the same principle to add a new column to your ibd table named geo_pair, which will contain a vector of values created by joining of the columns country1 and country2. Add this column .after the sample1 and sample2 and .before the chrom columns for clearer visibility. Save the result back to the ibd variable.

Click to see the solution

ibd <- mutate(ibd, geo_pair = paste(country1, country2, sep = ":"), .before = chrom)
ibd

# A tibble: 2,291,452 × 13
   sample1   sample2 geo_pair   chrom start   end length country1  age1 age_bin1
   <chr>     <chr>   <chr>      <dbl> <dbl> <dbl>  <dbl> <chr>    <dbl> <chr>   
 1 Gjerrild5 kzb005  Denmark:R…     1  2.23  4.73   2.51 Denmark  4110  (0,5000]
 2 Gjerrild5 HG01438 Denmark:C…     1  2.23  4.73   2.51 Denmark  4110  (0,5000]
 3 Gjerrild5 NA19649 Denmark:M…     1  2.23  4.73   2.51 Denmark  4110  (0,5000]
 4 DA248     DA341   Russia:Ru…     1  2.23  4.73   2.51 Russia   7645  (5000,1…
 5 DA249     DA340   Russia:Ru…     1  2.23  4.73   2.51 Russia   7840. (5000,1…
 6 DA249     DA341   Russia:Ru…     1  2.23  4.73   2.51 Russia   7840. (5000,1…
 7 DA335     NEO230  Russia:Ru…     1  2.23  4.73   2.51 Russia   4200  (0,5000]
 8 DA336     DA338   Russia:Ru…     1  2.23  4.73   2.51 Russia   4200  (0,5000]
 9 DA336     DA343   Russia:Ru…     1  2.23  4.73   2.51 Russia   4200  (0,5000]
10 DA336     RISE662 Russia:Ru…     1  2.23  4.73   2.51 Russia   4200  (0,5000]
# ℹ 2,291,442 more rows
# ℹ 3 more variables: country2 <chr>, age2 <dbl>, age_bin2 <chr>

In addition to computing statistics across pairs of geographical regions, we will also probably want to look at temporal patterns. Create a new column time_pair, which will in this case contains a paste() combination of age_bin1 and age_bin2, added .after the geo_pair column. Save the result back to the ibd variable.

Click to see the solution

ibd <- mutate(ibd, time_pair = paste(age_bin1, age_bin2, sep = ":"), .after = geo_pair)
ibd

# A tibble: 2,291,452 × 14
   sample1   sample2 geo_pair  time_pair chrom start   end length country1  age1
   <chr>     <chr>   <chr>     <chr>     <dbl> <dbl> <dbl>  <dbl> <chr>    <dbl>
 1 Gjerrild5 kzb005  Denmark:… (0,5000]…     1  2.23  4.73   2.51 Denmark  4110 
 2 Gjerrild5 HG01438 Denmark:… (0,5000]…     1  2.23  4.73   2.51 Denmark  4110 
 3 Gjerrild5 NA19649 Denmark:… (0,5000]…     1  2.23  4.73   2.51 Denmark  4110 
 4 DA248     DA341   Russia:R… (5000,10…     1  2.23  4.73   2.51 Russia   7645 
 5 DA249     DA340   Russia:R… (5000,10…     1  2.23  4.73   2.51 Russia   7840.
 6 DA249     DA341   Russia:R… (5000,10…     1  2.23  4.73   2.51 Russia   7840.
 7 DA335     NEO230  Russia:R… (0,5000]…     1  2.23  4.73   2.51 Russia   4200 
 8 DA336     DA338   Russia:R… (0,5000]…     1  2.23  4.73   2.51 Russia   4200 
 9 DA336     DA343   Russia:R… (0,5000]…     1  2.23  4.73   2.51 Russia   4200 
10 DA336     RISE662 Russia:R… (0,5000]…     1  2.23  4.73   2.51 Russia   4200 
# ℹ 2,291,442 more rows
# ℹ 4 more variables: age_bin1 <chr>, country2 <chr>, age2 <dbl>,
#   age_bin2 <chr>

As a final step, because we have all annotation available in our two pair columns, drop the individual country, age, and age_bin columns using the select() function (remember the starts_with() helper functions?), and save the result back into the ibd variable.

Click to see the solution

ibd <- select(ibd, -starts_with("country"), -starts_with("age"))
ibd

# A tibble: 2,291,452 × 8
   sample1   sample2 geo_pair         time_pair         chrom start   end length
   <chr>     <chr>   <chr>            <chr>             <dbl> <dbl> <dbl>  <dbl>
 1 Gjerrild5 kzb005  Denmark:Russia   (0,5000]:(0,5000]     1  2.23  4.73   2.51
 2 Gjerrild5 HG01438 Denmark:Colombia (0,5000]:present…     1  2.23  4.73   2.51
 3 Gjerrild5 NA19649 Denmark:Mexico   (0,5000]:present…     1  2.23  4.73   2.51
 4 DA248     DA341   Russia:Russia    (5000,10000]:(50…     1  2.23  4.73   2.51
 5 DA249     DA340   Russia:Russia    (5000,10000]:(50…     1  2.23  4.73   2.51
 6 DA249     DA341   Russia:Russia    (5000,10000]:(50…     1  2.23  4.73   2.51
 7 DA335     NEO230  Russia:Russia    (0,5000]:(0,5000]     1  2.23  4.73   2.51
 8 DA336     DA338   Russia:Russia    (0,5000]:(0,5000]     1  2.23  4.73   2.51
 9 DA336     DA343   Russia:Russia    (0,5000]:(0,5000]     1  2.23  4.73   2.51
10 DA336     RISE662 Russia:Russia    (0,5000]:(0,5000]     1  2.23  4.73   2.51
# ℹ 2,291,442 more rows
…
Exercise 7: Summarizing IBD data

OK, data munging (widely acknowledged to be the most annoying part of doing data science) is done. Time to do some data exploration and science! In this and later exercises you will get to practice your tidyverse skills from the previous chapter on your new exciting IBD data.

ibd_today <- filter(ibd, time_pair == "present-day:present-day")
ibd_today

# A tibble: 671,001 × 12
   sample1 sample2 geo_pair   time_pair      chrom start   end length longitude1
   <chr>   <chr>   <chr>      <chr>          <dbl> <dbl> <dbl>  <dbl>      <dbl>
 1 HG00096 HG02230 UK:Spain   present-day:p…     1  2.23  4.73   2.51         NA
 2 HG00097 HG00277 UK:Finland present-day:p…     1  2.23  4.73   2.51         NA
 3 HG00097 HG01685 UK:Spain   present-day:p…     1  2.23  4.73   2.51         NA
 4 HG00097 NA20531 UK:Italy   present-day:p…     1  2.23  4.73   2.51         NA
 5 HG00099 HG00330 UK:Finland present-day:p…     1  2.23  4.73   2.51         NA
 6 HG00099 NA11830 UK:Europe  present-day:p…     1  2.23  4.73   2.51         NA
 7 HG00099 NA11840 UK:Europe  present-day:p…     1  2.23  4.73   2.51         NA
 8 HG00100 HG01786 UK:Spain   present-day:p…     1  2.23  4.73   2.51         NA
 9 HG00101 NA20522 UK:Italy   present-day:p…     1  2.23  4.73   2.51         NA
10 HG00102 NA12273 UK:Europe  present-day:p…     1  2.23  4.73   2.51         NA
# ℹ 670,991 more rows
# ℹ 3 more variables: latitude1 <dbl>, longitude2 <dbl>, latitude2 <dbl>
…
