Working with tables – Simulation-Based Population Genomics
…
max(df$coverage, na.rm = TRUE)

[1] 58.8661

Exercise 2: Selecting columns

Often times we end up in a situation in which we don’t want to have a large data frame with a huge number of columns. Not as much for the reasons of the data taking up too much memory, but for convenience. You can see that our df metadata table has 32 columns, which don’t fit on the screen if we just print it out:

df

# A tibble: 4,172 × 32
   sampleId popId site  country region   groupLabel groupAge flag  shapeA colorA
   <chr>    <chr> <chr> <chr>   <chr>    <chr>      <chr>    <chr>  <dbl> <chr> 
 1 NA18486  YRI   <NA>  Nigeria WestAfr… YRI        Modern   0          0 <NA>  
 2 NA18488  YRI   <NA>  Nigeria WestAfr… YRI        Modern   0          0 <NA>  
 3 NA18489  YRI   <NA>  Nigeria WestAfr… YRI        Modern   0          0 <NA>  
 4 NA18498  YRI   <NA>  Nigeria WestAfr… YRI        Modern   0          0 <NA>  
 5 NA18499  YRI   <NA>  Nigeria WestAfr… YRI        Modern   0          0 <NA>  
 6 NA18501  YRI   <NA>  Nigeria WestAfr… YRI        Modern   0          0 <NA>  
 7 NA18502  YRI   <NA>  Nigeria WestAfr… YRI        Modern   0          0 <NA>  
 8 NA18504  YRI   <NA>  Nigeria WestAfr… YRI        Modern   0          0 <NA>  
 9 NA18505  YRI   <NA>  Nigeria WestAfr… YRI        Modern   0          0 <NA>  
10 NA18507  YRI   <NA>  Nigeria WestAfr… YRI        Modern   0          0 <NA>  
# ℹ 4,162 more rows
# ℹ 22 more variables: latitude <dbl>, longitude <dbl>, callset <chr>,
#   dataSource <chr>, age14C <dbl>, ageHigh <dbl>, ageLow <dbl>,
#   ageAverage <dbl>, datingSource <chr>, coverage <dbl>, sex <chr>,
#   hgMT <chr>, gpAvg <dbl>, ageRaw <chr>, clusterId <chr>,
#   clusterIBDGlobal <chr>, clusterIBDFine <chr>, hgYMajor <chr>,
#   hgYMinor <chr>, color <chr>, clusterAlias <chr>, shape <dbl>

We can select which columns to select with the function select(). It has the following general format:

select(<data frame object or tibble>, <column 1>, <column 2>, ...)

This is how we would select columns using a normal base R subsetting/indexing operation:

df[, c("sampleId", "region", "coverage", "ageAverage")]

# A tibble: 4,172 × 4
   sampleId region     coverage ageAverage
   <chr>    <chr>         <dbl>      <dbl>
 1 NA18486  WestAfrica       NA         NA
 2 NA18488  WestAfrica       NA         NA
 3 NA18489  WestAfrica       NA         NA
 4 NA18498  WestAfrica       NA         NA
 5 NA18499  WestAfrica       NA         NA
 6 NA18501  WestAfrica       NA         NA
 7 NA18502  WestAfrica       NA         NA
 8 NA18504  WestAfrica       NA         NA
 9 NA18505  WestAfrica       NA         NA
10 NA18507  WestAfrica       NA         NA
# ℹ 4,162 more rows

This is the tidyverse approach using select():

select(df, sampleId, region, coverage, ageAverage)

# A tibble: 4,172 × 4
   sampleId region     coverage ageAverage
   <chr>    <chr>         <dbl>      <dbl>
 1 NA18486  WestAfrica       NA         NA
 2 NA18488  WestAfrica       NA         NA
 3 NA18489  WestAfrica       NA         NA
 4 NA18498  WestAfrica       NA         NA
 5 NA18499  WestAfrica       NA         NA
 6 NA18501  WestAfrica       NA         NA
 7 NA18502  WestAfrica       NA         NA
 8 NA18504  WestAfrica       NA         NA
 9 NA18505  WestAfrica       NA         NA
10 NA18507  WestAfrica       NA         NA
# ℹ 4,162 more rows
…
Practice select() by creating three new data frame objects:

Data frame df_ages which contains all variables related to sample ages

Data frame df_geo which contains all variables related to geography

The first column of these data frames should always be sampleId

Click to see the solution

df_ages <- select(df, sampleId, groupAge, age14C, ageHigh, ageLow, ageAverage, ageRaw)
df_ages

# A tibble: 4,172 × 7
   sampleId groupAge age14C ageHigh ageLow ageAverage ageRaw
   <chr>    <chr>     <dbl>   <dbl>  <dbl>      <dbl> <chr> 
 1 NA18486  Modern       NA      NA     NA         NA <NA>  
 2 NA18488  Modern       NA      NA     NA         NA <NA>  
 3 NA18489  Modern       NA      NA     NA         NA <NA>  
 4 NA18498  Modern       NA      NA     NA         NA <NA>  
 5 NA18499  Modern       NA      NA     NA         NA <NA>  
 6 NA18501  Modern       NA      NA     NA         NA <NA>  
 7 NA18502  Modern       NA      NA     NA         NA <NA>  
 8 NA18504  Modern       NA      NA     NA         NA <NA>  
 9 NA18505  Modern       NA      NA     NA         NA <NA>  
10 NA18507  Modern       NA      NA     NA         NA <NA>  
# ℹ 4,162 more rows

df_geo <- select(df, site, country, region, latitude, longitude)
df_geo

# A tibble: 4,172 × 5
   site  country region     latitude longitude
   <chr> <chr>   <chr>         <dbl>     <dbl>
 1 <NA>  Nigeria WestAfrica       NA        NA
 2 <NA>  Nigeria WestAfrica       NA        NA
 3 <NA>  Nigeria WestAfrica       NA        NA
 4 <NA>  Nigeria WestAfrica       NA        NA
 5 <NA>  Nigeria WestAfrica       NA        NA
 6 <NA>  Nigeria WestAfrica       NA        NA
 7 <NA>  Nigeria WestAfrica       NA        NA
 8 <NA>  Nigeria WestAfrica       NA        NA
 9 <NA>  Nigeria WestAfrica       NA        NA
10 <NA>  Nigeria WestAfrica       NA        NA
# ℹ 4,162 more rows
…
