More tidyverse practice – Computational Population Genetics and Statistical Inference in R
…
With the basic sanity check above, we can be sure that our IBD segments table can be co-analyzed with the information in the metadata and that we won’t be missing anything important.

Exercise 2: IBD processing

Add a new column length to the ibd_segments data frame using the mutate() function, which will contain the length of each IBD segment in centimorgans (end - start). Save the data frame that mutate() returns back to the variable ibd_segments.

Note: Sometimes saving new things to already-defined variables leads to very messy code and its cleaner to create new variables for nex results. In this instance, we’re basically building up a processing pipeline whose purpose is to filter / mutate / clean a data frame for downstream use. In fact, later we will add individual steps of this pipeline name in several subsequent steps.

NoteClick to see the solution

ibd_segments <- ibd_segments %>% mutate(length = end - start)

ibd_segments

# A tibble: 461,858 × 7
   sample1 sample2 chrom start   end rel   length
   <chr>   <chr>   <dbl> <dbl> <dbl> <chr>  <dbl>
 1 VK548   NA20502    21  58.3  62.1 none   3.75 
 2 VK528   HG01527    21  24.8  27.9 none   3.04 
 3 PL_N28  NEO36      21  14.0  16.5 none   2.44 
 4 NEO556  HG02230    21  13.1  14.0 none   0.962
 5 HG02399 HG04062    21  18.8  21.0 none   2.21 
 6 EKA1    NEO220     21  30.1  35.8 none   5.72 
 7 19651   HG01941    21  49.0  51.3 none   2.24 
 8 HG02181 HG04033    21  13.1  13.9 none   0.868
 9 VK328   HG01438    21  60.7  62.8 none   2.04 
10 F004    HG03616    21  25.4  27.6 none   2.15 
# ℹ 461,848 more rows

Note that you don’t always use a tidyverse approach. Sometimes doing a simple thing using a simple method is just… simpler:

# we first make a copy of the original data
ibd_segments <- ibd_segments
# and then add the new column
ibd_segments$length <- ibd_segments$end - ibd_segments$start

ibd_segments

# A tibble: 461,858 × 7
   sample1 sample2 chrom start   end rel   length
   <chr>   <chr>   <dbl> <dbl> <dbl> <chr>  <dbl>
 1 VK548   NA20502    21  58.3  62.1 none   3.75 
 2 VK528   HG01527    21  24.8  27.9 none   3.04 
 3 PL_N28  NEO36      21  14.0  16.5 none   2.44 
 4 NEO556  HG02230    21  13.1  14.0 none   0.962
 5 HG02399 HG04062    21  18.8  21.0 none   2.21 
 6 EKA1    NEO220     21  30.1  35.8 none   5.72 
 7 19651   HG01941    21  49.0  51.3 none   2.24 
 8 HG02181 HG04033    21  13.1  13.9 none   0.868
 9 VK328   HG01438    21  60.7  62.8 none   2.04 
10 F004    HG03616    21  25.4  27.6 none   2.15 
# ℹ 461,848 more rows
…
Realistically, given that our interest here is pairwise IBD segments, a lot of this metadata information is quite useless at this stage. Let’s make the data a bit smaller and easier to look at at a glance.

Use select() a subset of the metadata with the following columns and store it in a new variable metadata (not back to metadata_all! we don’t want to overwrite the original big table metadata_all in case we need to refer to it a bit later): sampleId, country, continent, ageAverage. Then rename sampleId to sample, popId to pop, and ageAverage to age just to save ourselves some typing later.

NoteClick to see the solution

metadata <- select(metadata_all, sample = sampleId, country, continent, age = ageAverage)

metadata

# A tibble: 4,072 × 4
   sample  country continent   age
   <chr>   <chr>   <chr>     <dbl>
 1 NA18486 Nigeria Africa       NA
 2 NA18488 Nigeria Africa       NA
 3 NA18489 Nigeria Africa       NA
 4 NA18498 Nigeria Africa       NA
 5 NA18499 Nigeria Africa       NA
 6 NA18501 Nigeria Africa       NA
 7 NA18502 Nigeria Africa       NA
 8 NA18504 Nigeria Africa       NA
 9 NA18505 Nigeria Africa       NA
10 NA18507 Nigeria Africa       NA
# ℹ 4,062 more rows
…
Hint: Note that you can create multiple new columns with mutate(), but you can also pipe %>% one mutate() into another mutate() into another mutate(), etc.!

NoteClick to see the solution

ibd_merged <- mutate(
  ibd_merged,
  country_pair = paste(country1, country2, sep = ":"),
  region_pair = paste(continent1, continent2, sep = ":"),
  .before = chrom
)

# let's verify the results
ibd_merged

# A tibble: 461,847 × 17
   sample1 sample2 country_pair     region_pair   chrom start   end rel   length
   <chr>   <chr>   <chr>            <chr>         <dbl> <dbl> <dbl> <chr>  <dbl>
 1 VK548   NA20502 Norway:Italy     Europe:Europe    21  58.3  62.1 none   3.75 
 2 VK528   HG01527 Norway:Spain     Europe:Europe    21  24.8  27.9 none   3.04 
 3 PL_N28  NEO36   Poland:Sweden    Europe:Europe    21  14.0  16.5 none   2.44 
 4 NEO556  HG02230 Russia:Spain     Europe:Europe    21  13.1  14.0 none   0.962
 5 HG02399 HG04062 China:India      Asia:Asia        21  18.8  21.0 none   2.21 
 6 EKA1    NEO220  Estonia:Sweden   Europe:Europe    21  30.1  35.8 none   5.72 
 7 19651   HG01941 Canada:Peru      America:Amer…    21  49.0  51.3 none   2.24 
 8 HG02181 HG04033 China:India      Asia:Asia        21  13.1  13.9 none   0.868
 9 VK328   HG01438 Denmark:Colombia Europe:Ameri…    21  60.7  62.8 none   2.04 
10 F004    HG03616 China:India      Asia:Asia        21  25.4  27.6 none   2.15 
# ℹ 461,837 more rows
# ℹ 8 more variables: country1 <chr>, continent1 <chr>, age1 <dbl>,
#   age_bin1 <fct>, country2 <chr>, continent2 <chr>, age2 <dbl>,
#   age_bin2 <fct>
…
In addition to computing statistics across pairs of geographical regions, we will also probably want to look at temporal patterns. Create a new column time_pair, which will in this case contains a paste() combination of age_bin1 and age_bin2, added .after the region_pair column. Save the result back to the ibd_merged variable.

NoteClick to see the solution

ibd_merged <- mutate(
  ibd_merged,
  time_pair = paste(age_bin1, age_bin2, sep = ":"), .after = region_pair
)

ibd_merged

# A tibble: 461,847 × 18
   sample1 sample2 country_pair    region_pair time_pair chrom start   end rel  
   <chr>   <chr>   <chr>           <chr>       <chr>     <dbl> <dbl> <dbl> <chr>
 1 VK548   NA20502 Norway:Italy    Europe:Eur… (0,10000…    21  58.3  62.1 none 
 2 VK528   HG01527 Norway:Spain    Europe:Eur… (0,10000…    21  24.8  27.9 none 
 3 PL_N28  NEO36   Poland:Sweden   Europe:Eur… (0,10000…    21  14.0  16.5 none 
 4 NEO556  HG02230 Russia:Spain    Europe:Eur… (0,10000…    21  13.1  14.0 none 
 5 HG02399 HG04062 China:India     Asia:Asia   present-…    21  18.8  21.0 none 
 6 EKA1    NEO220  Estonia:Sweden  Europe:Eur… (0,10000…    21  30.1  35.8 none 
 7 19651   HG01941 Canada:Peru     America:Am… (0,10000…    21  49.0  51.3 none 
 8 HG02181 HG04033 China:India     Asia:Asia   present-…    21  13.1  13.9 none 
 9 VK328   HG01438 Denmark:Colomb… Europe:Ame… (0,10000…    21  60.7  62.8 none 
10 F004    HG03616 China:India     Asia:Asia   (0,10000…    21  25.4  27.6 none 
# ℹ 461,837 more rows
# ℹ 9 more variables: length <dbl>, country1 <chr>, continent1 <chr>,
#   age1 <dbl>, age_bin1 <fct>, country2 <chr>, continent2 <chr>, age2 <dbl>,
#   age_bin2 <fct>
…
